
width: 400px;
height: 150px;
padding: 10px;
border: 1px solid red;
margin: 20px;

total width= 20+1+10+400+10+1+20=462px
total height= 20+1+10+150+10+1+20=212px
Browser calculated width= 1+10+400+10+1+422px
Browser calculated height=1+10+150+10+1=172px